{
  "type": "service_account",
  "project_id": "ecommerce-439e2",
  "private_key_id": "04f4035b79749df75bd96c98a81baa8ba6fda81d",
  "private_key": "-----BEGIN PRIVATE KEY-----\nMIIEvQIBADANBgkqhkiG9w0BAQEFAASCBKcwggSjAgEAAoIBAQDNHAvBZolTp4RF\n45J3EuBIQIUk6Lbv9xLTFShjyfyX2fIW4318KC/1Iz2lHjeoZy/kISqtCMe/M23q\n363SOL7uO17/rD0P+sdFRN58+YSedE3q4DQuz7z6HvwffMnSTzrO29sLHMbL45za\nvQyq11+B5bAajuIp1E8sUrrJD9C3QhikaiukhydgorJclPLyixgLi150aJGvQdDD\n3We5HEOEHyvprI80KmOAowfWKnOuyOq5VwVQhrwkYihEnCocatZaHbQ03/UMgDoe\na2bli8Hn5IcK/eBVQtlnj/Os+PoRyZh6a1Gb+wrAPY7bgC7kXzRp8m8QH0IwEy8U\nUftM4UrJAgMBAAECggEAZHM3zp/I4Y9I2HF7aZV1Ae2XR1wxO5RlQ7s47KYfbr7u\nMQd4jTWhRwzbQ+Jon7DpY3Ba1iNWr+0gB8dD+ZCQ8VtiSxSvUwQeU25HCC2rJW8Q\nOddTtxlGE7jZARK8RKNIycYioG6XbYMrbnTnn0ObIqK6fEc9u/6eR7a8g3ubXCPB\n451ZBmUMJ4MunmIgahqem4SprHh+ouCDaFP0HnKNDqS1tnzI1GuKsg7+ZRht5vJE\nfTuHYV6tVbbRWRG8gxVSQbmflddEfFfZBc7awgoDXBgkOx81hQ0/PDHoE+sb2mWL\nIw39SRKZsyGxa37RWA55dIuqT1q6nwiI/RTte+4lgQKBgQDyKWguM1IoRP3otKX8\nfnMVeuyGFU9pVNXnaUoJiTSgDJ1sUi5oSUqVOR5UetnNSaZ23DIQPnzQimfRNXhm\nYloqHVZ3wC0EJpfrG2X18DLD7GajRIdzBBe3D9eQujj/nrJ6YsJJV8hqSw6PKbnq\ni0cxw/8BHKV3l5HczPDPldrQQwKBgQDY1Jnhl4Ht6Dgi+brnjWbO1L3xP26SkU2+\nZ2gBpUJpAjZrZxsgZj7Cjsdw1eaTg0A5SqPFnyKPjfLhx6ZFuvGehrOSmglBZUxx\n/2KY5TrU10jMZTDe3MJ0MpMWljO6mNqVN9/nqu4zrqXm1N4Ha3jcFXKLmRUmRktn\nKcn832MeAwKBgEREDf1wNEnr4RQ30M8UKoc0pvbJjSBpbP+We+uiRTaVN8+wfyqg\n9qiIeJdiJoIrsASz4F0Z8H+tdMTSaQWb1kUnDhgmEcqowozhpWWmd/kpbGm8SN7Q\nmYreqWtARA8zgqbjrleUqofkbs9G+QU4jDJoSTvcAn1rOhBfqccrPIsXAoGAb+Cq\nkXrSIIX8SReft4//JuMgKlU3YUq12XOTd53keTgaCirGFV6MLWjsQS0s7pn/TlBT\n1kj41SdB1ftksH/34XrRNuhhtCtnWT6Tih5kz6NRPZ1MrQEtGDVsLXBMuo/Z4LpW\nvjs08te/ZC4bbaqnTq+GTb8r6XbFuzIVtXMxui8CgYEAzybxwsu7K5Lxsgn3Rhv1\nRuE+Lz/V16SWIMRjYI2G71zzOaha1Zf/gipULRFnwJFU/X9TcspXFbkgfNFgH6HT\nZ1wKh6wY+71YTknRrb3eWwiVAkpEJ50suS81gK6xs7i/fPqnDrLN2zrPeoVVdpa+\n1o0LN9HmVupYrhTMat8FzcM=\n-----END PRIVATE KEY-----\n",
  "client_email": "firebase-adminsdk-tu5u2@ecommerce-439e2.iam.gserviceaccount.com",
  "client_id": "109335564425137388292",
  "auth_uri": "https://accounts.google.com/o/oauth2/auth",
  "token_uri": "https://oauth2.googleapis.com/token",
  "auth_provider_x509_cert_url": "https://www.googleapis.com/oauth2/v1/certs",
  "client_x509_cert_url": "https://www.googleapis.com/robot/v1/metadata/x509/firebase-adminsdk-tu5u2%40ecommerce-439e2.iam.gserviceaccount.com"
}
